{
  "name": "RTU_ANAYLYSIS",
  "description": "Blank Process",
  "main": "Main.xaml",
  "dependencies": {
    "ActivitiesDataTable": "[1.0.0]",
    "BalaReva.Excel.Graph.Activities": "[2.0.1]",
    "JSON": "[1.0.1]",
    "Microsoft.Activities.Extensions": "[2.0.6.9]",
    "Sendgrid": "[9.11.0]",
    "UiPath.AppulateClient.Activities": "[0.1.6971.31392]",
    "UiPath.Database.Activities": "[1.2.6863.32528]",
    "UiPath.Excel.Activities": "[2.6.2]",
    "UiPath.Mail.Activities": "[1.5.0]",
    "UiPath.System.Activities": "[19.6.0]",
    "UiPath.UIAutomation.Activities": "[19.6.0]",
    "UiPath.WebAPI.Activities": "[1.4.2]",
    "UiPathTeam.JsonDataConverter.Activities": "[1.1.0]",
    "UiPathTeam.JsonRequestActivities": "[1.0.0]"
  },
  "schemaVersion": "3.2",
  "studioVersion": "19.6.0.0",
  "projectVersion": "1.0.0",
  "runtimeOptions": {
    "autoDispose": false,
    "isPausable": true,
    "excludedLoggedData": [
      "Private:*",
      "*password*"
    ]
  },
  "projectType": "Workflow",
  "expressionLanguage": "VisualBasic",
  "libraryOptions": {
    "includeOriginalXaml": false,
    "privateWorkflows": []
  },
  "webServices": []
}