Enrollment_Number,Roll_Number,S_Name,F_Name,M_Name,BranchCode,SEMESTER
15E1GIAEM40P001,15EGIAE001,"ABHIJEET SARASWAT","SANJAY OJHA","NIRASHA OJHA",AE,6
15E1GIAEM30P002,15EGIAE002,"AKHIL ACHANKUNJU","ACHANKUNJU C K","JOLLY ACHANKUNJU",AE,6
15E1GIAEM30P003,15EGIAE003,"AYUSH PANDIYAR","SUKH LAL PANDIYAR","SARITA PANDIYAR",AE,6
15E1GIAEM40P008,15EGIAE008,"GULSHAN KUMAR RAJPUT","RAMESH SINGH RAJPUT","USHA DEVI",AE,6
15E1GIAEM40P009,15EGIAE009,"HIMANSHU PANWAR","GANPAT SINGH PANWAR","MUNNA KANWAR",AE,6
15E1GIAEM40P010,15EGIAE010,"LAXMI KANT MENARIA","LALIT KUMAR MENARIA","DURGA MENARIA",AE,6
15E1GIAEM40P012,15EGIAE012,"MANOJ JOSHI","KANHAIYA LAL JOSHI","KAMLA JOSHI",AE,6
15E1GIAEM30P014,15EGIAE014,"NITESH PATIDAR","DINESH CHANDRA","PREM BAI",AE,6
15E1GIAEM30P015,15EGIAE015,"PANKAJ KALAL","KESHAV LAL KALAL","TARA DEVI",AE,6
15E1GIAEM40P016,15EGIAE016,"RAJDEEP SINGH","MANVINDER SINGH","JAGJEET KAUR",AE,6
15E1GIAEM40P017,15EGIAE017,"RAJKUMAR NAGDA","NANA LAL NAGDA","KAUSHALIYA NAGDA",AE,6
15E1GIAEM30P018,15EGIAE018,"RONAK LOHAR","SURAJMAL LOHAR","RAMILA LOHAR",AE,6
15E1GIAEM30P019,15EGIAE019,"SACHIN LOHAR","KANHAIYA LAL LOHAR","NEENA LOHAR",AE,6
15E1GIAEM40P020,15EGIAE020,"SANDEEP R NAIR","RADHAKISHAN NAIR","PONNAMMA R NAIR",AE,6
15E1GIAEM40P021,15EGIAE021,"SHUBHAM MENARIA","BANSI LAL MENARIA","KAMALA MENARIA",AE,6
15E1GIAEM30P022,15EGIAE022,"SUKHPAL CHOUDHARY","BHEEMRAJ CHOUDHARY","NOSHAR DEVI",AE,6
15E1GIAEM30P023,15EGIAE023,"UMA SHANKAR DANGI","KHEMRAJ DANGI","NANDU DANGI",AE,6
15E1GIAEM10P024,15EGIAE024,"VIKAS SALVI","SHRI LAL SALVI","HEERA DEVI SALVI",AE,6
15E1GIAEM40P025,15EGIAE025,"VINIT SHRIMALI","GIRJA DATT SHRIMALI","LEELA SHRIMALI",AE,6
15E1GICEM40P001,15EGICE001,"ABHISHEK HEDA","RAJENDRA KUMAR HEDA","PREM DEVI HEDA",CE,6
15E1GICEM40P002,15EGICE002,"AKHILESH SINGH RATHORE","SURENDRA SINGH RATHORE","RAJ SHREE SINGH",CE,6
15E1GICEM45P003,15EGICE003,"AYAN SHAH KHAN","SAJID SHAH KHAN","RUBINA KHAN",CE,6
15E1GICEM30P004,15EGICE004,"BHARAT SONI","KRISHNA GOPAL SONI","SUMITRA SONI",CE,6
15E1GICEM30P005,15EGICE005,"BHASKAR KUMAR","RAMESH KUMAR","SHARDA DEVI",CE,6
15E1GICEM30P006,15EGICE006,"BHUPENDRA KUMAWAT","PRAKASH KUMAWAT","SAROJ KUMAWAT",CE,6
15E1GICEM10P007,15EGICE007,"BIRJU MEGHWAL","BABU LAL JI","SANTOSHI BAI",CE,6
15E1GICEM40P008,15EGICE008,"CHANDRAPAL SINGH CHUNDAWAT","GHANSHYAM SINGH CHUNDAWAT","HARSHA KUNWAR",CE,6
15E1GICEM40P010,15EGICE010,"DEEPAK SHARMA","DEV KISHAN SHARMA","HEMLATA SHARMA",CE,6
15E1GICEM30P011,15EGICE011,"DINESH KUMAWAT","MALLA RAM","INDRA DEVI",CE,6
15E1GICEM35P012,15EGICE012,"DIVYANSH CHOUHAN","RAJENDRA CHOUHAN","ANITA CHOUHAN",CE,6
15E1GICEM10P013,15EGICE013,"DURGESH MAKWANA","BINJA RAM MAKWANA","PUSHPA DEVI",CE,6
15E1GICEM40P014,15EGICE014,"GOURAV JOSHI","KAMAL JOSHI","SONIYA JOSHI",CE,6
15E1GICEM30P015,15EGICE015,"GOURAV PRAJAPAT","UDAI LAL PRAJAPAT","LALI BAI",CE,6
15E1GICEM40P016,15EGICE016,"GOURAV SINGH AHADA","INDRAJEET SINGH AHADA","NIRMALA KUNWAR",CE,6
15E1GICEM40P017,15EGICE017,"HARSHIT SHARMA","SUDHIR KUMAR SHARMA","SEEMA SHARMA",CE,6
15E1GICEM30P018,15EGICE018,"HIMMAT CHOUDHARY","DEVI LAL CHOUDHARY","GHISI BAI",CE,6
15E1GICEM30P019,15EGICE019,"HITESH JANGID","GOKUL CHAND JANGID","GUDDI DEVI",CE,6
15E1GICEM30P021,15EGICE021,"HITESH TELI","MANGI LAL TELI","GEETA DEVI",CE,6
15E1GICEM30P022,15EGICE022,"JAGDISH DANGI","DUDA RAM DANGI","GEETA BAI DANGI",CE,6
15E1GICEM20P023,15EGICE023,"JAGDISH PRASAD MEENA","KALYAN SAHAY MEENA","JAI SHREE",CE,6
15E1GICEM45P024,15EGICE024,"JAIN YASH ASHOKBHAI","ASHOK BHAI","LEELA BEN",CE,6
15E1GICEM10P025,15EGICE025,"JINENDRA DHANDHORIA","DHARMENDRA DHANDHORIA","GANESHI DHANDHORIA",CE,6
15E1GICEM30P026,15EGICE026,"KAILASH SEERVI","VARDA RAM SEERVI","SUKI DEVI",CE,6
15E1GICEM30P027,15EGICE027,"KARAN SANKHLA","GHANSHYAM SANKHLA","SUNITA DEVI",CE,6
15E1GICEM30P028,15EGICE028,"KOSHAL RAO","BHAGWATI LAL RAO","GUDDI BAI",CE,6
15E1GICEM10P029,15EGICE029,"KSHITIJ VALOT","MUKESH MEGHWAL","LALITA MEGHWAL",CE,6
15E1GICEM30P030,15EGICE030,"KSHITIZ SHARMA","KAILASH SHARMA","ANJANA SHARMA",CE,6
15E1GICEM30P032,15EGICE032,"KULDEEP TELI","RAJU TELI","HEMLATA TELI",CE,6
15E1GICEM30P033,15EGICE033,"LOVISH SAHU","LOKESH SAHU","SEEMA SAHU",CE,6
15E1GICEM40P034,15EGICE034,"MAHENDRA SINGH GOUD","MANGU SINGH GOUD","PURAN KUNWAR",CE,6
15E1GICEM40P035,15EGICE035,"MAHIPAL SINGH JHALA","FATEH SINGH JHALA","LALITA KUNWAR JHALA",CE,6
15E1GICEM30P036,15EGICE036,"MANISH KUMAR","SHISH RAM","INDRA DEVI",CE,6
15E1GICEM40P038,15EGICE038,"MANISH SHARMA","GOVERDHAN LAL","MAYA SHARMA",CE,6
15E1GICEM30P039,15EGICE039,"MAYANK NAINCHANDRA SHARMA","NAINCHANDRA SHARMA","GEETA SHARMA",CE,6
15E1GICEM30P040,15EGICE040,"NIKHIL VISHNOI","ARUN KUMAR VISHNOI","SEEMA VISHNOI",CE,6
15E1GICEM30P041,15EGICE041,"PANKAJ SEN","RAJESH SEN","NIRMALA SEN",CE,6
15E1GICEM10P042,15EGICE042,"PRADEEP SALVI","MANGI LAL SALVI","MEERA SALVI",CE,6
15E1GICEM10P044,15EGICE044,PURUSHOTAM,"ROOPA RAM",RANJANA,CE,6
15E1GICEM30P045,15EGICE045,"RAHUL SUTHAR","MOHAN LAL SUTHAR","JASHODA SUTHAR",CE,6
15E1GICEM30P046,15EGICE046,"RANJEET KHAROL","SHANTI LAL KHAROL","DAKHU BAI",CE,6
15E1GICEM40P047,15EGICE047,"RAVI ACHARYA","RAJENDRA ACHARYA","GEETA ACHARYA",CE,6
15E1GICEM30P048,15EGICE048,"RISHABH KALAL","DINESH CHANDRA KALAL","VINOD KUMARI KALAL",CE,6
15E1GICEM20P049,15EGICE049,"ROHIT MEENA","SHIVRAJ MEENA","SULOCHNA MEENA",CE,6
15E1GICEM35P050,15EGICE050,"SANDAL RAJ BHAWSAR","ARUN BHAWSAR","ANITA BHAWSAR",CE,6
15E1GICEM30P051,15EGICE051,"SANDEEP CHAUHAN","NAIN MAL CHAUHAN","FANCY CHAUHAN",CE,6
15E1GICEM30P052,15EGICE052,"SANJAY KHINCHI","BARKAT KHAN",KELA,CE,6
15E1GICEM10P053,15EGICE053,"SAURABH MEGHWAL","MANILAL MEGHWAL","RUKMANI MEGHWAL",CE,6
15E1GICEM40P054,15EGICE054,"SAYYED SHAHBAZ ALI","SAYYED SUBRAT ALI","TAHIRA BANO",CE,6
15E1GICEM40P055,15EGICE055,"SHUBHAM SHUKLA","BAL MUKUND SHUKLA",BABITA,CE,6
15E1GICEM40P056,15EGICE056,"SHUBHRANSH SHARMA","LAXMIKANT SHARMA","RASHMI SHARMA",CE,6
15E1GICEM30P058,15EGICE058,"SOURABH CHAWDA","BHAGWATI LAL",DIMPAL,CE,6
15E1GICEM30P059,15EGICE059,"SURAJ LOHAR","KISHAN LOHAR","MAINA LOHAR",CE,6
15E1GICEM40P060,15EGICE060,"VIJAY GORANA","SOHAN LAL GORANA","KAMLA GORANA",CE,6
15E1GICEM30P061,15EGICE061,"VIKRAM BHARTI","SANTOSH BHARTI","DHAPU DEVI",CE,6
15E1GICEM30P062,15EGICE062,"YASHWANT SOLANKI","VIJAY RAM SOLANKI","CHANDA DEVI SOLANKI",CE,6
15E1GICEM30P063,15EGICE063,"YOGESH GURJAR","GOPAL LAL GURJAR","CHOTI DEVI",CE,6
16E1GICEM30P201,16EGICE201,"ANIRUDDHA JOSHI","VINOD KUMAR JOSHI","NEEMA JOSHI",CE,6
16E1GICEM30P203,16EGICE203,"MAHESH KUMAR KAMAT","PRADAD KAMAT","RUNA DEVI",CE,6
16E1GICEM30P204,16EGICE204,"PIYUSH KUMAR CHEEPA","LADU LAL CHEEPA","PUSHPA DEVI",CE,6
15E1GICSM30P001,15EGICS001,"ABHINAV SUHALKA","SHOBHA LAL SUHALKA","RAJ KUMARI",CS,6
15E1GICSF45P002,15EGICS002,"ABRITI NANDA","SATYA NAND SRIVASTAVA","SADHANA SRIVASTAVA",CS,6
15E1GICSM40P003,15EGICS003,"AKSHANT JAIN","HARISH CHANDRA JAIN","LALITA JAIN",CS,6
15E1GICSM40P004,15EGICS004,"AKSHAY KUMAR JAIN","DEEPAK KUMAR JAIN","KAILASH DEVI",CS,6
15E1GICSF45P005,15EGICS005,"AMISHA JAIN","VIJAY SINGH JAIN","HEMLATA JAIN",CS,6
15E1GICSF40P006,15EGICS006,"AMISHA MATHUR","MOHAN PRAKASH MATHUR","ALKA MATHUR",CS,6
15E1GICSM40P007,15EGICS007,"ANKIT JAGAN","ANIL JAGAN","JYOTI JAGAN",CS,6
15E1GICSF40P008,15EGICS008,"APARNA CHAKRAVORTY","ASHOK CHAKRAVORTY","SUNITA CHAKRAVORTY",CS,6
15E1GICSF40P009,15EGICS009,"ARCHANA JHANWAR","KAMAL KISHORE JHANWAR","SUDHA JHANWAR",CS,6
15E1GICSM30P010,15EGICS010,"ARPIT KUMAWAT","RATAN LAL KUMAWAT","LATA KUMAWAT",CS,6
15E1GICSM30P011,15EGICS011,"ARPIT SHARMA","DINESH SHARMA","MADHU SHARMA",CS,6
15E1GICSM40P012,15EGICS012,"ASHOK MEHTA","VALJI MEHTA",NATEE,CS,6
15E1GICSM40P013,15EGICS013,"AVIRAL CHAUHAN","SANJAY CHAUHAN","RENU SINGH",CS,6
15E1GICSM40P014,15EGICS014,"AYUSH VYAS","VIJAY VYAS","DEEPIKA VYAS",CS,6
15E1GICSF30P015,15EGICS015,"AYUSHI BAIRAGI","ANIL BAIRAGI","YASHODA BAIRAGI",CS,6
15E1GICSF30P016,15EGICS016,"AYUSHI SINGH KUSHWAH","SHYAM SINGH KUSHWAH","SHOBHA RANI",CS,6
15E1GICSM30P017,15EGICS017,"BHAVESH KUMAR LOHAR","RAMESH KUMAR LOHAR","REKHA LOHAR",CS,6
15E1GICSM40P018,15EGICS018,"BHAVYA MATHUR","RAJEEV MATHUR","MADHU BHATNAGAR",CS,6
15E1GICSM40P019,15EGICS019,"CHANDRADARSHAN PANDEY","DHANANJAY PANDEY","SHAIL PANDEY",CS,6
15E1GICSM40P020,15EGICS020,"CHETAN KUMAR MENARIA","NIMAT LAL MENARIA","JASODA BAI",CS,6
15E1GICSM30P021,15EGICS021,"CHIRAG KALAL","POPAT LAL KALAL","REKHA DEVI",CS,6
15E1GICSM40P022,15EGICS022,"CHIRAG PALIWAL","MADAN PALIWAL","NEETA PALIWAL",CS,6
15E1GICSF40P023,15EGICS023,"DAMINI PALIWAL","SURESH PALIWAL","GAYTRI PALIWAL",CS,6
15E1GICSM30P024,15EGICS024,"DEEPENDRA GADWAL","RAM RATAN GADWAL","SITA DEVI",CS,6
15E1GICSM10P025,15EGICS025,"DEVRAJ RATHORE","DINESH RAJ RATHORE","PAPPY DEVI",CS,6
15E1GICSM30P026,15EGICS026,"DHEERENDRA SOLANKI","DINESH SOLANKI","JYOTASANA SOLANKI",CS,6
15E1GICSM40P027,15EGICS027,"DHRUVIL DAVE","JAYENDRA DAVE","PUNITA DEVI",CS,6
15E1GICSF40P028,15EGICS028,"DIKSHITA BHATT","OM PRAKASH BHATT","SHWETA BHATT",CS,6
15E1GICSF40P029,15EGICS029,"DISHA PUROHIT","NARENDRA KUMAR PUROHIT","NEETA PUROHIT",CS,6
15E1GICSM30P030,15EGICS030,"GAYARI KAILASH PYARELAL",PYARELAL,"SOSAR BEN GAYARI",CS,6
15E1GICSM40P031,15EGICS031,"GULSHAN ZAMAN KHAN","AHMED ZAMAN KHAN","ASHIYA KHAN",CS,6
15E1GICSF40P032,15EGICS032,"HABIBA KURABAR WALA","AHSAN ALI KURABAR WALA","HASINA KURABAR WALA",CS,6
15E1GICSM40P033,15EGICS033,"HARSH JAIN","MAHESH JAIN","VANITA JAIN",CS,6
15E1GICSM40P034,15EGICS034,"HARSHIT CHAUHAN","NATWAR LAL CHAUHAN","VEENA CHAUHAN",CS,6
15E1GICSF40P035,15EGICS035,"HEENA SHRIMALI","RAM CHANDRA SHRIMALI","BASANTI SHRIMALI",CS,6
15E1GICSF40P036,15EGICS036,"ISHA MATHUR","SANJAY B MATHUR","ARCHANA MATHUR",CS,6
15E1GICSM40P037,15EGICS037,"KAUSHIT SHAMBHWANI","GEHI MAL SHAMBHWANI","KAVITA SHAMBHWANI",CS,6
15E1GICSM40P038,15EGICS038,"KISHAN SINGH RAJPUROHIT","HADMAN SINGH RAJPUROHIT","RUKMANI KUNWAR",CS,6
15E1GICSF40P039,15EGICS039,"LAKSHITA PALIWAL","MUKESH PALIWAL","VIDHYA PALIWAL",CS,6
15E1GICSF30P040,15EGICS040,"LISHA KUMAWAT","SUNIL KUMAWAT","URMILA KUMAWAT",CS,6
15E1GICSM40P044,15EGICS044,"MAYANK SHARMA","NARENDRA KUMAR","SHARMILA DEVI",CS,6
15E1GICSF30P045,15EGICS045,"MINAL SHARMA","KAMAL SHARMA","MEENAKSHI SHARMA",CS,6
15E1GICSM30P048,15EGICS048,"MUKESH NATH","LAXMAN NATH","SHUSHILA NATH",CS,6
15E1GICSM40P049,15EGICS049,"MUKUL TATER","RAKESH TATER","ANITA TATER",CS,6
15E1GICSM40P050,15EGICS050,"NAGENDRA SINGH RANA","GOVIND SINGH RANA","SUMITRA KUNWAR",CS,6
15E1GICSF30P051,15EGICS051,"NAHID AKHTAR","ABDUL ARIF","ZARINA BEGUM",CS,6
15E1GICSM40P052,15EGICS052,"NAYAN PANCHOLI","MAHESH PANCHOLI","JYOTI PANCHOLI",CS,6
15E1GICSM40P053,15EGICS053,"NEERAJ JOSHI","JAYESH JOSHI","KALPANA JOSHI",CS,6
15E1GICSM30P054,15EGICS054,"NIRMAL SUTHAR","SURESH SUTHAR","PARVATI DEVI",CS,6
15E1GICSM30P056,15EGICS056,"NISHANT SONI","HEERA LAL SONI","KANCHAN DEVI",CS,6
15E1GICSM30P060,15EGICS060,"PRAVEEN CHOUDHARY","VARDEE CHAND CHOUDHARY","PUSHPA BAI CHOUDHARY",CS,6
15E1GICSF35P061,15EGICS061,"PRIYANKA GUPTA","RAMASHANKAR GUPTA","BEILY GUPTA",CS,6
15E1GICSM40P062,15EGICS062,"PUNEET CHELANI","CHETAN CHELANI","RAJANI CHELANI",CS,6
15E1GICSF40P063,15EGICS063,"PURVA SHAH","B P SHAH","MADHU SHAH",CS,6
15E1GICSM40P064,15EGICS064,"RAHUL DHING","GAUTAM KUMAR DHING","MAINA DEVI",CS,6
15E1GICSM30P065,15EGICS065,"RAHUL KUMAR SWARNAKAR","MUKESH KUMAR","SURAJ DEVI",CS,6
15E1GICSM40P067,15EGICS067,"RAJAT AUDICHYA","VINOD AUDICHYA","SARIKA AUDICHYA",CS,6
15E1GICSM30P068,15EGICS068,"RAJAT SUTHAR","JAGDISH KUMAR SUTHAR","SAROJ SUTHAR",CS,6
15E1GICSM40P069,15EGICS069,"RAO AVINASH BHANWARSINGH",BHANWARSINGH,MANJU,CS,6
15E1GICSF40P070,15EGICS070,"RICHA RAO","RAJENDRA SINGH RAO","KAMLA RAO",CS,6
15E1GICSM45P071,15EGICS071,"ROUNAK MAHESHWARI","SHYAM SUNDAR",KALPANA,CS,6
15E1GICSM40P072,15EGICS072,"RUMAN AHMED RIZVI","VAQAR AHMED RIZVI","SHAHJAHAN RIZVI",CS,6
15E1GICSF40P073,15EGICS073,"SAKINA SABUN WALA","RAJAB ALI SABUN WALA","FATIMA SABUN WALA",CS,6
15E1GICSM30P074,15EGICS074,"SANJAY KUMAR","HARISH KUMAR","POSEE DEVI",CS,6
15E1GICSM40P075,15EGICS075,"SARTHAK MEHTA","GAJENDRA MEHTA","DARSHANA MEHTA",CS,6
15E1GICSM30P076,15EGICS076,"SHAILESH PRAJAPAT","NARAYAN LAL PRAJAPAT","RATAN DEVI",CS,6
15E1GICSF40P077,15EGICS077,"SHALINI MATHUR","MAHENDRA PRASAD MATHUR","USHA MATHUR",CS,6
15E1GICSF30P078,15EGICS078,"SHEFALI YADAV","S K YADAV","USHA YADAV",CS,6
15E1GICSF40P079,15EGICS079,"SHEFFALI JAIN","LALIT KUMAR JAIN","LAXMI JAIN",CS,6
15E1GICSF40P081,15EGICS081,"SHRISTY JOSHI","YOGESH CHANDRA JOSHI","KAMLESH JOSHI",CS,6
15E1GICSM40P082,15EGICS082,"SHUBHAM AGARWAL","VIJAY DEV AGARWAL","RAJKUMARI AGARWAL",CS,6
15E1GICSM30P083,15EGICS083,"SHUBHAM PATIDAR","HARISH PATIDAR",MANJULATA,CS,6
15E1GICSM40P084,15EGICS084,"SOURABH JOSHI","VINAY KUMAR JOSHI","TARA UPADHAYAY",CS,6
15E1GICSF45P085,15EGICS085,"SRASHTI VYAS","RAVINDRA VYAS","YASHODHARA VYAS",CS,6
15E1GICSM30P086,15EGICS086,"SUMIT CHAUHAN",NAINMAL,FANCY,CS,6
15E1GICSM40P087,15EGICS087,"SURENDRA MENARIA","MANGI LAL MENARIA","BHANWARI DEVI",CS,6
15E1GICSF30P088,15EGICS088,"SWATI BHATI","OM PRAKASH BHATI","SANTOSH BHATI",CS,6
15E1GICSF10P089,15EGICS089,"SWEETY MALLICK","PRONAB KUMAR MALLICK","ARPONA MALLICK",CS,6
15E1GICSF10P090,15EGICS090,"TINA JAMOLIYA","BRAJ MOHAN","DURGESH DEVI",CS,6
15E1GICSM40P091,15EGICS091,"UPASANA AMETA","TULJA SHANKER AMETA","YASHODA AMETA",CS,6
15E1GICSM40P092,15EGICS092,"VAIBHAV SETH","VINOD SETH","KIRAN SETH",CS,6
15E1GICSF40P093,15EGICS093,"VANDANA GAUR","HEMANT KUMAR GAUR","PRITI GAUR",CS,6
15E1GICSF30P094,15EGICS094,"VANDITA CHOUDHARY","RAJENDRA CHOUDHARY","LALITA CHOUDHARY",CS,6
15E1GICSF10P095,15EGICS095,"VIDIT MEGHWAL","HIMMAT LAL MEGHWAL","KAMLA MEGHWAL",CS,6
15E1GICSM40P096,15EGICS096,"VINAY LADHA","MAHESH LADHA","RAMA LADHA",CS,6
15E1GICSM30P097,15EGICS097,"VINOD KUMAR SAHU","JAGDISH CHANDRA SAHU","SHALI SAHU",CS,6
16E1GICSM35P200,16EGICS200,"AADITYA SHARMA","RAMNAVAL SHARMA","ASHA DEVI",CS,6
16E1GICSM30P201,16EGICS201,"HUKMEE CHAND BHOI","VATS RAM BHOI","KAMLA BAI",CS,6
16E1GICSM30P203,16EGICS203,"PUSHKAR PANCHAL","DINESH PANCHAL","PUSHPA PANCHAL",CS,6
16E1GICSM10P204,16EGICS204,"ROHIT NARNOLIYA","GOPI LAL NARNOLIYA","URMILA DEVI",CS,6
16E1GICSM45P205,16EGICS205,"SAURABH SHUKLA","YOGENDRA NARAYAN SHUKLA","SUMAN SHUKLA",CS,6
16E1GICSM40P206,16EGICS206,"SURAJ KUMAR BHAT","AVTAR KRISHEN BHAT","VEENA BHAT",CS,6
15E1GIECF40P001,15EGIEC001,"AAYUSHI GARG","RAVINDRA GARG","RADHA GARG",EC,6
15E1GIECF45P002,15EGIEC002,"ADITI SHRIVASTAVA","SANJAY SHRIVASTAVA","SHWETA SHRIVASTAVA",EC,6
15E1GIECF40P003,15EGIEC003,"ALISHA WAGPURA","SHABBIR WAGPURA","SHAHIDA WAGPURA",EC,6
15E1GIECF40P004,15EGIEC004,"AMULYA SHARMA","SATISH SHARMA","TARUNA SANADHYA",EC,6
15E1GIECF45P005,15EGIEC005,"ARUSHI PREET KAUR","NARENDER PAL SINGH","SARBJEET KAUR",EC,6
15E1GIECF40P006,15EGIEC006,"AYUSHI CHAPLOT","AJIT CHAPLOT","SNEHALATA CHAPLOT",EC,6
15E1GIECM30P007,15EGIEC007,"GHANSHYAM SINGH CHAUHAN","BHOOR SINGH CHAUHAN","DALI DEVI",EC,6
15E1GIECF30P008,15EGIEC008,"HARSHITA SHARMA","MANOJ KUMAR SHARMA","RADHA SHARMA",EC,6
15E1GIECM10P009,15EGIEC009,"ISHWAR KUMAR","NENA RAM","PYARI DEVI",EC,6
15E1GIECF40P010,15EGIEC010,"ITISHA SOMANI","BHERU LAL SOMANI","NIRMALA SOMANI",EC,6
15E1GIECF40P011,15EGIEC011,"JINI MEHTA","VIRENDRA MEHTA","RAJKUMARI MEHTA",EC,6
15E1GIECM40P012,15EGIEC012,"KALPIT VAYA","RAMESH CHANDRA VAYA","GIRIJA DEVI VAYA",EC,6
15E1GIECF40P013,15EGIEC013,"LAVINA SANADHYA","RAKESH SANADHYA","MAMTA SANADHYA",EC,6
15E1GIECF30P014,15EGIEC014,"MEGHA SHARMA","DINESH SHARMA","TARUNA SHARMA",EC,6
15E1GIECF40P015,15EGIEC015,"MEGHAL MANDOT","YASHWANT KUMAR MANDOT","MANKHUSH MANDOT",EC,6
15E1GIECM10P016,15EGIEC016,"MUKESH SALVI","DEVI LAL SALVI","SUGNA DEVI SALVI",EC,6
15E1GIECF40P017,15EGIEC017,"MUSKAN CHUGH","SUNIL CHUGH","ANJALI CHUGH",EC,6
15E1GIECF30P018,15EGIEC018,"NEHA SHARMA","HEMANT KUMAR SHARMA","USHA SHARMA",EC,6
15E1GIECF40P019,15EGIEC019,"PRITI SHARMA","CHUNNI LAL SHARMA","SUSHEELA SHARMA",EC,6
15E1GIECF40P020,15EGIEC020,"SOFIYA KHAN","FIROZ KHAN","SHAHIDA BANU",EC,6
15E1GIECF40P022,15EGIEC022,"SWEETY SOLANKI","MANOJ KUMAR SINGH","SEEMA DEVI",EC,6
16E1GIECM40P201,16EGIEC201,"ROHAN SHARMA","LALU RAM SHARMA","LATA SHARMA",EC,6
16E1GIECM40P202,16EGIEC202,"TAHIR ALI UNTALAWALA","HATIM ALI UNTALAWALA","REHANA ALI",EC,6
15E1GIEEM40P001,15EGIEE001,"ABHAY SINGH GAHLOT","PURUSHOTTAM SINGH GAHLOT","MANGLA KUNWAR",EE,6
15E1GIEEM40P002,15EGIEE002,"ABHINAV SUKHWAL","DINESH CHANDRA SUKHWAL","REKHA SUKHWAL",EE,6
15E1GIEEM40P003,15EGIEE003,"ABHISHEK DADHICH","MRITYUNJAY DADHICH","SHAKUNTALA DEVI",EE,6
15E1GIEEM30P004,15EGIEE004,"AISHAN MOHAMMED","NOOR MOHAMMED","SALMA BANO",EE,6
15E1GIEEM40P005,15EGIEE005,"AKSHAY PALIWAL","NAND LAL PALIWAL","SUDHA PALIWAL",EE,6
15E1GIEEF10P006,15EGIEE006,"ANJALI KUMARI SOLANKI","DEVILAL SOLANKI","SUSHILA DEVI SOLANKI",EE,6
15E1GIEEM40P007,15EGIEE007,"ANSARI SHAHID HUSAIN","MAJNUDDIN ANSARI","ASGARI KHATUN",EE,6
15E1GIEEM30P009,15EGIEE009,"ASIF KHAN","JAMIL MOHAMMAD","RAHMAT BANO",EE,6
15E1GIEEM30P010,15EGIEE010,"ASHOK KUMAR GURJAR","SANTOSH KUMAR",SUSHILA,EE,6
15E1GIEEM40P011,15EGIEE011,"AYUSH TAILOR","PURUSHOTAM TAILOR","NAVRATAN DIDWANIYA",EE,6
15E1GIEEM40P013,15EGIEE013,"BHUPESH SHARMA","RAMCHANDRA SHARMA","DAKHI SHARMA",EE,6
15E1GIEEM30P014,15EGIEE014,"DEEPAK DANGI","PRABHU LAL DANGI","KALI BAI",EE,6
15E1GIEEM40P015,15EGIEE015,"DEEPAK SINGH JHALA","KALYAN SINGH JHALA","NEELAM KUNWAR",EE,6
15E1GIEEM30P016,15EGIEE016,"DEVENDRA JAJPURA","LAXMI NARAYNAN KUMAR","KAMLA DEVI",EE,6
15E1GIEEM40P017,15EGIEE017,"DHEERAJ KUMAR NAGDA","DINESH CHANDRA NAGDA","KAMLA DEVI NAGDA",EE,6
15E1GIEEM30P018,15EGIEE018,"DILIP PATIDAR","KAMALJI PATIDAR","KESHAR DEVI",EE,6
15E1GIEEM30P019,15EGIEE019,"DINESH KUMAR","SUBHASH CHAND KUMAWAT","MUNNI DEVI",EE,6
15E1GIEEM40P020,15EGIEE020,"DINESH MENARIA","BHAGWATI LAL","LAXMI DEVI",EE,6
15E1GIEEF40P021,15EGIEE021,"FARHAT KHANAM","ABDUL SAYEED","ARIFA KHANAM",EE,6
15E1GIEEM40P022,15EGIEE022,"GAURAV JAIN","PRAKASH JAIN","MANJU JAIN",EE,6
15E1GIEEM30P023,15EGIEE023,"GAURAV SONI","SATYA NARAYAN SONI","LALITA SONI",EE,6
15E1GIEEM40P025,15EGIEE025,"HOSHANG BHAMBHANI","RAJESH BHAMBHANI",SIMIRAN,EE,6
15E1GIEEM20P026,15EGIEE026,"JAGDISH GAMETI","FATEH LAL GAMETI","MANGI DEVI",EE,6
15E1GIEEM30P027,15EGIEE027,"JAHID HUSSAIN","JAKIR HUSSAIN","AMNA BANU",EE,6
15E1GIEEM40P028,15EGIEE028,"JITENDRA SINGH RANAWAT","BHARAT SINGH RANAWAT","GAJENDRA KUNWAR",EE,6
15E1GIEEF40P029,15EGIEE029,"KHUSHBU SHARMA","DINESH SHARMA","REKHA SHARMA",EE,6
15E1GIEEM10P030,15EGIEE030,"KRISHNAKANT SISODIYA","BHAGWAN SINGH SISODIYA","PREM DEVI",EE,6
15E1GIEEM10P031,15EGIEE031,"LAKSHMAN LAL NOGIYA","CHUNNI LAL NOGIYA","SHANTA DEVI",EE,6
15E1GIEEM30P032,15EGIEE032,"LALIT JANWA","LAXMI LAL JANWA","BAGDI DEVI",EE,6
15E1GIEEM30P033,15EGIEE033,"LOKESH KUMAR JAT","KISHAN LAL","SUGANA DEVI",EE,6
15E1GIEEM20P034,15EGIEE034,"LOKESH KUMAR KHANT","DEELIP KUMAR","GEETA DAMORE",EE,6
15E1GIEEM40P035,15EGIEE035,"LOVESH PANERI","DINESH CHANDRA PANERI",RAJKUMARI,EE,6
15E1GIEEM30P036,15EGIEE036,"MANISH LOHAR","KAILASH CHANDRA LOHAR","SAYAR LOHAR",EE,6
15E1GIEEM30P038,15EGIEE038,"MANOHAR PATIDAR","RAMJI PATIDAR","MANI DEVI PATIDAR",EE,6
15E1GIEEM30P039,15EGIEE039,"MANOJ SUTHAR","ROSHAN LAL SUTHAR","NARAYANI BAI",EE,6
15E1GIEEM40P040,15EGIEE040,"MO JUNAID MAKRANI","ABDUL HAFEEZ MAKRANI","TAYRA BANO",EE,6
15E1GIEEM10P042,15EGIEE042,"NARESH KUMAR BHAND","SHANKAR LAL","CHANDA DEVI",EE,6
15E1GIEEMX0P043,15EGIEE043,"NARSI GURJAR","SHYAM LAL GURJAR",VIMLA,EE,6
15E1GIEEM10P044,15EGIEE044,"NAYAN KHATIK","SHANKAR LAL KHATIK","PREMI BAI",EE,6
15E1GIEEF30P045,15EGIEE045,"NEHA PATWA","H S PATWA","PINKY PATWA",EE,6
15E1GIEEM10P046,15EGIEE046,"NIMESH BADARIYA","GANPAT LAL","GEETA DEVI",EE,6
15E1GIEEM40P048,15EGIEE048,"NITIN JOHN THOMAS","THOMAS VARGHESE","NISHA THOMAS",EE,6
15E1GIEEM35P049,15EGIEE049,"PIYUSH SHARMA","GOPAL KRISHNA SHARMA",KARUNA,EE,6
15E1GIEEM40P050,15EGIEE050,"PRADEEP AUDICHIYA","HEERA LAL","MOHANI BAI",EE,6
15E1GIEEM40P051,15EGIEE051,"PRASHANT VIG","HEMANT KUMAR VIG","EKTA VIG",EE,6
15E1GIEEM10P052,15EGIEE052,"PRINCE PANWAR","JITENDRA PANWAR","VINOD KUMARI",EE,6
15E1GIEEM35P053,15EGIEE053,"PURUSHOTTAM PATIDAR","KANAHAIYA LAL PATIDAR","SUMITRA PATIDAR",EE,6
15E1GIEEM10P054,15EGIEE054,"PUSHPENDRA SINGH","GOPAL SINGH","SHAKUNTALA DEVI",EE,6
15E1GIEEM30P055,15EGIEE055,"RADHE SHYAM JAT","UNKAR LAL JAT","SUSHILA JAT",EE,6
15E1GIEEM40P056,15EGIEE056,"RAHUL SINGH CHUNDAWAT","GIRDHARI SINGH CHUNDAWAT","NAINA KUNWAR",EE,6
15E1GIEEM30P057,15EGIEE057,"RAJDEEP SINGH CHOUHAN","KHANGAR SINGH CHOUHAN","KANCHAN KANWAR",EE,6
15E1GIEEMX0P058,15EGIEE058,"RAKESH KUMAR GURJAR","BALU RAM GURJAR","YASHODA DEVI",EE,6
15E1GIEEM40P059,15EGIEE059,"RAKESH MEHTA","RAMESH CHANDRA MEHTA","VISHNU MEHTA",EE,6
15E1GIEEM45P060,15EGIEE060,"RANJEET SINGH","LAL SINGH","NYAL KUNWAR",EE,6
15E1GIEEM40P062,15EGIEE062,"SALIL AGRAWAL","VINOD KUMAR","RAKSHA AGRAWAL",EE,6
15E1GIEEM30P063,15EGIEE063,"SANJAY KUMHAR","MANGI LAL KUMHAR","PUSHAPA BAI",EE,6
15E1GIEEF40P064,15EGIEE064,"SHEELA VERMA","KULESHWAR SINGH VERMA","PUSHPA VERMA",EE,6
15E1GIEEM30P065,15EGIEE065,"SUDHANSHU SINGH RAO","VIJAY SINGH RAO","SHARDA KUNWAR",EE,6
15E1GIEEM30P066,15EGIEE066,"SURESH LOHAR","RAM CHANDRA LOHAR","TAMU DEVI",EE,6
15E1GIEEM40P067,15EGIEE067,"UTASAV SANADHYA","SATYA PRAKASH","REKHA SANADHYA",EE,6
15E1GIEEM40P068,15EGIEE068,"VENKATESH RAJPUROHIT","ARJUN RAJPUROHIT","KANCHAN RAJPUROHIT",EE,6
15E1GIEEM40P069,15EGIEE069,"VIKRAM SINGH KITAWAT","GAMER SINGH KITAWAT","RAMU KUNWAR KITAWAT",EE,6
15E1GIEEM40P070,15EGIEE070,"VIPIN MEHTA","KAILASH MEHTA","NEPAL BAI",EE,6
15E1GIEEM10P071,15EGIEE071,"YASHWANT KUMAR REGAR","HAJARI LAL REGAR","NANI DEVI REGAR",EE,6
15E1GIEEM40P072,15EGIEE072,"YOGPAL SINGH AHADA","BHEEM SINGH AHADA","JAYBALA KUNWAR",EE,6
16E1GIEEM40P200,16EGIEE200,"ADNAN SAIF KHAN","YAKIN KHAN","BILKIS KHAN",EE,6
16E1GIEEM40P201,16EGIEE201,"AKSHAY DADHEECH","YOGENDRA DADHEECH","SAROJ DADHEECH",EE,6
16E1GIEEM40P202,16EGIEE202,"GAJENDRA PUROHIT","HARI NARAYAN",LATA,EE,6
16E1GIEEM10P204,16EGIEE204,"HITESH GAWARIYA","VIJAY GAWARIYA","VIMLA GAWARIYA",EE,6
16E1GIEEM30P205,16EGIEE205,"KAPIL LOHAR","BANSHI LAL LOHAR","LALITA LOHAR",EE,6
16E1GIEEF40P207,16EGIEE207,"KIRAN TRIVEDI","NARENDRA TRIVEDI","KAILASH TRIVEDI",EE,6
16E1GIEEM10P208,16EGIEE208,"LALIT KUMAR BUNKER","ROSHAN LAL BUNKER","AASHA DEVI BUNKER",EE,6
16E1GIEEM20P211,16EGIEE211,"PUSHPENDRA SINGH MEENA","BAHNWAR LAL MEENA","NARAYANI DEVI",EE,6
16E1GIEEM40P213,16EGIEE213,"RISHABH SANADHYA","SATYA PRAKASH SANADHYA","MANJU SANADHYA",EE,6
16E1GIEEM30P214,16EGIEE214,"SUNIL KUMAR SAHU","TEJMAL SAHU","SEEMA SAHU",EE,6
16E1GIEEM40P215,16EGIEE215,"VINOD SHARMA","DHANRAJ SHARMA","KANKU DEVI",EE,6
16E1GIEEM40P216,16EGIEE216,"VIPUL TIWARI","RAMESH TIWARI","ASHA TIWARI",EE,6
15E1GIMEM40P001,15EGIME001,"ABHISHEK SINGH","UMRAO SINGH","KALA KANWAR",ME,6
15E1GIMEM40P002,15EGIME002,"ABHISHEK VYAS","VISHNU SHANKER VYAS","BHERAWI LATA SHARMA",ME,6
15E1GIMEM40P003,15EGIME003,"ABREZ MOHAMMAD","ABDUL WAHEED","RAFIKAN BANO",ME,6
15E1GIMEM40P004,15EGIME004,"ADITYA PRATAP SINGH SISODIA","SURENDRA SINGH SISODIA","VEERMLA KUNWAR SISODIA",ME,6
15E1GIMEM45P005,15EGIME005,"AKBARI PRATEEK RAMESH BHAI","RAMESH BHAI","SUSHILA BEN",ME,6
15E1GIMEM45P006,15EGIME006,"AMAN KUMAR JHA","RAMAN KUMAR JHA","RITA JHA",ME,6
15E1GIMEM40P007,15EGIME007,"AMAN POKHARANA","ASHOK KUMAR POKHARANA","PRAMILA DEVI POKHARANA",ME,6
15E1GIMEM30P008,15EGIME008,"ANIL KUMAR JAISWAL",ANOP,"LALITA DEVI",ME,6
15E1GIMEM35P009,15EGIME009,"ANKIT RATHOR","AMIT RATHOR","REKHA DEVI",ME,6
15E1GIMEM40P010,15EGIME010,"ANKUR SHRIMALI","HEMANT SHRIMALI","VANDANA SHRIMALI",ME,6
15E1GIMEM45P011,15EGIME011,"ANURAG MISHRA","ANIL KR MISHRA","ANJULA MISHRA",ME,6
15E1GIMEM40P012,15EGIME012,"ANWAR AALAM","ABDUL QUADEER ZAI","BILQUEES BANU",ME,6
15E1GIMEM40P013,15EGIME013,"ARCHIT JAIN","HEMANT JAIN","NIRMALA JAIN",ME,6
15E1GIMEM40P014,15EGIME014,"ARUN MENARIYA","RAVI PRAKASH SHARMA","CHANDI BAI",ME,6
15E1GIMEM30P015,15EGIME015,"ARVIND JAT","RAM SINGH JAT","SUKHI BAI",ME,6
15E1GIMEM40P016,15EGIME016,"ASHISH RAUT","ADAWIT PRASAD RAUT","ANITA RAUT",ME,6
15E1GIMEM20P017,15EGIME017,"ASHOK MEENA","KAILASH CHANDRA MEENA","RAMPATI DEVI",ME,6
15E1GIMEM30P018,15EGIME018,"ASIF MOHAMMAD SHAH","RASUL SHAH","MERAJ BANO",ME,6
15E1GIMEM40P019,15EGIME019,"AVINASH SHARMA","SHAILENDRA SHARMA","PRATIBHA SHARMA",ME,6
15E1GIMEM30P020,15EGIME020,"AVISH SAHU","KAILASH SAHU","NEELAM SAHU",ME,6
15E1GIMEM10P021,15EGIME021,"BHARAT KUMAR MAKRANA","KISHORE MAKRANA","SHANTI DEVI MAKRANA",ME,6
15E1GIMEM30P022,15EGIME022,"BHAVESH KUMAR GHANCHI","SHANKAR LAL GHANCHI","MANJU DEVI",ME,6
15E1GIMEM40P023,15EGIME023,"BHAWAN SANADHYA","PRAKASH SANADHYA","SUNITA SHARMA",ME,6
15E1GIMEM40P024,15EGIME024,"BHAWANI SHANKAR JOSHI","LAXMI LAL JOSHI","MANJU JOSHI",ME,6
15E1GIMEM30P025,15EGIME025,"CHETAN KASHYAP","RAMNATH KASHYAP","ANITA KASHYAP",ME,6
15E1GIMEM40P026,15EGIME026,"CHIRAG GOUR","KOMAL PRASAD GOUR","RADHA GOUR",ME,6
15E1GIMEM40P027,15EGIME027,"DANISH KHAN","IRSHAD KHAN","NUZHAT KHAN",ME,6
15E1GIMEM10P028,15EGIME028,"DEEPAK BHATI","K R BHATI","LEELA BHATI",ME,6
15E1GIMEM40P029,15EGIME029,"DEEPAK JOSHI","M L JOSHI","PARAS JOSHI",ME,6
15E1GIMEM40P030,15EGIME030,"DEEPAK JOSHI","SURESH CHANDRA JOSHI","SAVITA JOSHI",ME,6
15E1GIMEM40P031,15EGIME031,"DEEPAK PALIWAL","BHAGWATI LAL PALIWAL","RAJU DEVI",ME,6
15E1GIMEM30P032,15EGIME032,"DEEPENDRA JANGID","NAVAL KISHOR JANGID","SUSHILA DEVI",ME,6
15E1GIMEM40P033,15EGIME033,"DEVENDRA SINGH RAO","PURAN SINGH RAO","YASHODA KUNWAR",ME,6
15E1GIMEM40P034,15EGIME034,"DEVENDRA SINGH RAO","RAO KAN SINGH","KESAR RAO",ME,6
15E1GIMEM35P035,15EGIME035,"DEVILAL BANJARA","RAMLAL BANJARA","NAUJEE BAI",ME,6
15E1GIMEM20P036,15EGIME036,"DILIP MEGHWAL","RAJESH MEGHWAL","AMRIT DEVI",ME,6
15E1GIMEM40P037,15EGIME037,"DRAVIN SHARMA","VIJAY SHARMA","TARA DEVI",ME,6
15E1GIMEM30P038,15EGIME038,"FARAZ ANSARI","AYAZ ANSARI","NAZNEEN ANSARI",ME,6
15E1GIMEM30P039,15EGIME039,"GIRINDRA KANSARA","LALIT KUMAR KANSARA","SHAKUNTALA KANSARA",ME,6
15E1GIMEM30P041,15EGIME041,"HANSRAJ SAHU","KARAN KUMAR SAHU","JYOTI DEVI",ME,6
15E1GIMEM40P042,15EGIME042,"HARSHAD PANDYA","MOHAN LAL PANDYA","BHAGWATI DEVI",ME,6
15E1GIMEM30P044,15EGIME044,"HIMANK SUHALKA","SAMRATH SUHALKA",HARSHWATI,ME,6
15E1GIMEM40P045,15EGIME045,"HITESH MAHESHWARI","RAMESH CHANDRA AGAR","SHASHI DEVI",ME,6
15E1GIMEM30P046,15EGIME046,"HITESH PRAJAPAT","MOHAN LAL PRAJAPAT","RAMILA DEVI",ME,6
15E1GIMEM10P047,15EGIME047,"JAGDISH CHANDRA KHATIK","SOHAN LAL KHATIK","KAMALA DEVI KHATIK",ME,6
15E1GIMEM30P048,15EGIME048,"JAY PRAKASH SONI","DINESH KUMAR SONI","PUSHPA SONI",ME,6
15E1GIMEM40P049,15EGIME049,"JAYESH SHARMA","GYANESHWAR SHARMA","CHANDERKALA SHARMA",ME,6
15E1GIMEM40P050,15EGIME050,"JEEVAN SINGH RATHORE","SHAKTI SINGH RATHORE","MITTHU KUNWAR RATHORE",ME,6
15E1GIMEM10P051,15EGIME051,"KAILASH CHAND","BHERA RAM","KENKU DEVI",ME,6
15E1GIMEM30P052,15EGIME052,KARAN,"GANPAT RAJ","LALITA DEVI",ME,6
15E1GIMEM30P053,15EGIME053,"KETAN DARJI","HEERA LAL DARJI","HEMLATA DEVI",ME,6
15E1GIMEM40P054,15EGIME054,"KOSTUBH VYAS","RAJENDRA PRASAD VYAS","RITURANI VYAS",ME,6
15E1GIMEM40P056,15EGIME056,"KULDEEP SINGH RAO","BHAGWAT SINGH RAO","PARWATI KUNWAR",ME,6
15E1GIMEM40P057,15EGIME057,"KULDEEP SINGH SISODIA","BHANU PRATAP SISODIA","URMILA KANWAR",ME,6
15E1GIMEM30P058,15EGIME058,"KUNAL KUMAR PRAJAPAT","KISHOR KUMAR PRAJAPAT","PUSHPA DEVI",ME,6
15E1GIMEM30P059,15EGIME059,"LOKESH KUMAR DANGI","JAGANNATH DANGI","MOHANI BAI",ME,6
15E1GIMEM30P060,15EGIME060,"LOKESH LOHAR","DEVI LAL LOHAR","CHANDA DEVI",ME,6
15E1GIMEM30P062,15EGIME062,"MAHENDRA LOHAR","HEERA LAL LOHAR","JASODA BAI",ME,6
15E1GIMEM40P063,15EGIME063,"MAHIPAL SINGH","RATAN SINGH","SHAILA KANWAR",ME,6
15E1GIMEM10P065,15EGIME065,"MANISH JATAV","JAGDISH JATAV","PREMLATA JATAV",ME,6
15E1GIMEM30P066,15EGIME066,"MEHUL PANCHAL","RAMAN LAL PANCHAL","REKHA DEVI PANCHAL",ME,6
15E1GIMEM30P067,15EGIME067,"MEHUL PATEL","NITIN PATEL","ANU PATEL",ME,6
15E1GIMEM40P068,15EGIME068,"MIRZA AKIF BEIG","ARIF BEIG","SHAHANA BEIG",ME,6
15E1GIMEM30P069,15EGIME069,"MOHAMMED ASHIF QURESHI","MOHAMMED SHARIF QURESHI","HAZARA BEGUM",ME,6
15E1GIMEM30P070,15EGIME070,"MOHIT JHARWAL","CHANDRA BHAN JHARWAL","JASODA DEVI",ME,6
15E1GIMEM40P071,15EGIME071,"MOHIT LADDHA","RAJESH KUMAR LADDHA","SAVITRI LADDHA",ME,6
15E1GIMEM40P072,15EGIME072,"MOHSIN KHAN","MAZHAR HUSSAIN","NAFISA KHANAM",ME,6
15E1GIMEM10P073,15EGIME073,"MUKESH KHATIK","KAILASH CHANDRA KHATIK","GOPI BAI KHATIK",ME,6
15E1GIMEM30P074,15EGIME074,"MUKESH PRAJAPAT","GOUTAM LAL PRAJAPAT","KAMLA DEVI",ME,6
15E1GIMEM30P075,15EGIME075,"MUKESH VISHWAKARMA","RAMESH CHAND VISHWAKARMA","TARA VISHWAKARMA",ME,6
15E1GIMEM40P076,15EGIME076,MUSTANSIR,"MOHAMMED HUSSAIN","SAKINA BAI",ME,6
15E1GIMEM40P077,15EGIME077,"NAMAN PALIWAL","PRAHLAD PALIWAL","KRISHNA PALIWAL",ME,6
15E1GIMEM40P078,15EGIME078,"NARENDRA SINGH","RAGHUVEER SINGH","KAILASH KANWAR",ME,6
15E1GIMEM40P080,15EGIME080,"NIRAJ KUMAR AGARWAL","LATE RAJENDRA AGARWAL","LALITA DEVI",ME,6
15E1GIMEM30P081,15EGIME081,"NISHAN MALVIYA","PRAKASH MALVIYA","ANJU MALVIYA",ME,6
15E1GIMEM30P082,15EGIME082,"OM PRAKASH KHAROL","KALU LAL KHAROL","LALI DAVI KHAROL",ME,6
15E1GIMEM30P083,15EGIME083,"OM PRAKASH KUMAWAT","SURESH CHANDRA KUMAWAT","JAMANA DEVI KUMAWAT",ME,6
15E1GIMEM30P084,15EGIME084,"OMPRAKASH CHOUDHARY","BHANWAR LAL CHOUDHARY","SAMMU DEVI",ME,6
15E1GIMEM40P085,15EGIME085,"PANKAJ TILAWAT","BHAGWATI LAL TILAWAT","RAMI BAI",ME,6
15E1GIMEM30P086,15EGIME086,"PAVAN LOHAR","BABU LAL LOHAR","KOUSHALYA DEVI",ME,6
15E1GIMEM40P087,15EGIME087,"PAWAN JOSHI","PREM SHANKAR JOSHI","PRAMILA JOSHI",ME,6
15E1GIMEM40P088,15EGIME088,"PRAHLAD MENARIYA","RAMESH CHANDRA",DAVEKANYA,ME,6
15E1GIMEM40P089,15EGIME089,"PRANJAL PORWAL","SUBHASH PORWAL","SARITA PORWAL",ME,6
15E1GIMEM30P090,15EGIME090,"PRAVEEN SINGH","SHRAVAN SINGH","SITA DEVI",ME,6
15E1GIMEM40P091,15EGIME091,"PREETAM SINGH RAO","JAWAN SINGH RAO","GOMATI KUNWAR",ME,6
15E1GIMEM40P092,15EGIME092,"PRITAM SINGH RANAWAT","LAL SINGH RANAWAT","SARDAR KUNWAR",ME,6
15E1GIMEM40P093,15EGIME093,"PUNEET TRIVEDI","PUSHKAR TRIVEDI","VIDHYA TRIVEDI",ME,6
15E1GIMEM30P094,15EGIME094,"RAHUL PATEL","BHERARAM PATEL","SURAJ DEVI",ME,6
15E1GIMEM40P095,15EGIME095,"RAJAT PALIWAL","RAJKUMAR PALIWAL","RAJESHWARI PALIWAL",ME,6
15E1GIMEM30P096,15EGIME096,"RAJU PRAJAPAT","HEMRAJ PRAJAPAT","JAMNA DEVI",ME,6
15E1GIMEM30P097,15EGIME097,"RAVI DHAKER","ISHWAR LAL DHAKER","SAVITRI BAI",ME,6
15E1GIMEM35P098,15EGIME098,"RAVI KUMAR SONI","KAMLESH SONI","SEEMA DEVI",ME,6
15E1GIMEM30P099,15EGIME099,"RAVINDRA SINGH RAO","MOHABBAT SINGH RAO","SHARDA DEVI",ME,6
15E1GIMEF40P100,15EGIME100,"RIDHIMA SINGH","SANJAY RANA","DEVESH RANA",ME,6
15E1GIMEM40P101,15EGIME101,"RISHABH JAIN","SHAILENDRA JAIN","SUMITRA DEVI",ME,6
15E1GIMEF40P102,15EGIME102,"ROOPAM MITTAL","NIRMAL KUMAR MITTAL","REKHA MITTAL",ME,6
15E1GIMEM30P103,15EGIME103,"SAMEER MOHD","SAMSU MOHD","SARDANA BANO",ME,6
15E1GIMEM40P105,15EGIME105,"SARANSH SHARMA","LALIT KUMAR SHARMA","LALITA SHARMA",ME,6
15E1GIMEM40P106,15EGIME106,"SHAKTI SINGH RATHORE","GAUTAM SINGH","SURAJ KUNWAR",ME,6
15E1GIMEM40P107,15EGIME107,"SHUBHAM MITTAL","CHANDRA SHEKHAR MITTAL","TRIPTI MITTAL",ME,6
15E1GIMEM45P108,15EGIME108,"SHUBHAM OJHA","ANIL KUMAR OJHA","SUMITRA OJHA",ME,6
15E1GIMEM30P109,15EGIME109,"SHUBHAM SONI","RAKESH KUMAR SONI","BHAGHWATI SONI",ME,6
15E1GIMEM30P110,15EGIME110,"SOURABH KHATRI","MAHESH KUMAR KHATRI","DRAUPADI KHATRI",ME,6
15E1GIMEM25P111,15EGIME111,"SURESH NOJARAM KHARWAD","NOJARAM PEMARAMJI KHARWAD","BHAVREEBEN NOJARAM KHARWAD",ME,6
15E1GIMEM10P112,15EGIME112,"TEJPAL REGAR","SHANTI LAL REGAR","LALI BAI",ME,6
15E1GIMEM30P113,15EGIME113,"VAIBHAV LOHAR","FATEH LAL LOHAR","YASHODA DEVI",ME,6
15E1GIMEM35P114,15EGIME114,"VARMA SHIVAM YOGENDRASINGH","VARMA YOGENDRASINGH","VARMA UMA YOGENDRASINGH",ME,6
15E1GIMEM30P115,15EGIME115,"VINAY KUMAR YADAV","LAXMAN YADAV","LALITA YADAV",ME,6
15E1GIMEM30P116,15EGIME116,"VINAYAK PANCHAL","RAMESHCHANDRA PANCHAL","VIMALA DEVI",ME,6
15E1GIMEM40P117,15EGIME117,"VIPLOVE SUTHAR","DC SUTHAR","SUSHMA SUTHAR",ME,6
15E1GIMEM35P118,15EGIME118,"VISHAL BATHRA","SHAMBHULAL BATHRA",LALITA,ME,6
15E1GIMEM20P119,15EGIME119,"VISHAL MEENA","SHANKAR LAL MEENA","JASHODA MEENA",ME,6
15E1GIMEM10P120,15EGIME120,"VIVEK MOCHI","LAXMI LAL MOCHI","SUSHILA DEVI",ME,6
15E1GIMEM40P121,15EGIME121,"YASHPAL SINGH RANAWAT","MAHIPAL SINGH RANAWAT","DEEPSHIKHA RANAWAT",ME,6
15E1GIMEM30P122,15EGIME122,"YASHWANT CHOUDHARY","UMESH CHOUDHARY","DURGA CHOUDHARY",ME,6
15E1GIMEM30P123,15EGIME123,"YASWANT SUTHAR","SHANTILAL SUTHAR","BASANTI SUTHAR",ME,6
15E1GIMEM30P124,15EGIME124,"YESHWANT LOHAR","ROOP LAL LOHAR","MEENA DEVI",ME,6
15E1GIMEM40P125,15EGIME125,"YOGENDER SINGH RANAWAT","BAJRANG SINGH RANAWAT","JANAK KUNWAR",ME,6
15E1GIMEM40P126,15EGIME126,"YOGENDRA MENARIA","SUKH LAL MENARIA","PRATIBHA DEVI",ME,6
15E1GIMEM40P400,15EGIME400,"RIDHIRAJ SINGH CHOUHAN","RAJENDRA SINGH CHOUHAN","CHANDRA KANWAR",ME,6
16E1GIMEM40P201,16EGIME201,"LOVEJEET PALIWAL","KAILASH PALIWAL","MAMTA PALIWAL",ME,6
16E1GIMEM20P204,16EGIME204,"RAHUL MEENA","RADHE SHYAM MEENA","MANJU DEVI",ME,6
16E1GIMEM30P205,16EGIME205,"RAJA SUWALKA","SURESH SUWALKA","HEMALATA SUWALKA",ME,6
16E1GIMEM40P207,16EGIME207,"YOGESH JOSHI","RAJESH JOSHI","NEELAM JOSHI",ME,6
